<?xml version="1.0" encoding="iso-8859-1"?>
<sspaceex xmlns="http://www-verimag.imag.fr/xml-namespaces/sspaceex" version="0.2" math="SpaceEx">
  <component id="warehouse_automation_human">
    <param name="x1" type="real" local="false" d1="1" d2="1" dynamics="any" />
    <param name="x2" type="real" local="false" d1="1" d2="1" dynamics="any" />
    <param name="c" type="real" local="false" d1="1" d2="1" dynamics="any" />
    <param name="e42001" type="label" local="false" />
    <param name="e34002" type="label" local="false" />
    <param name="e42003" type="label" local="false" />
    <param name="e32004" type="label" local="false" />
    <param name="e13005" type="label" local="false" />
    <param name="e17006" type="label" local="false" />
    <param name="e20007" type="label" local="false" />
    <param name="e23008" type="label" local="false" />
    <param name="e28009" type="label" local="false" />
    <location id="19001" name="loc19001">
      <invariant>x1&gt;=0 &amp; x1&lt;=1 &amp; x2&gt;=3 &amp; x2&lt;=4 &amp; c&gt;=0.1</invariant>
      <flow>x1'&gt;=-1 &amp; x1'&lt;=1 &amp; x2'&gt;=-1 &amp; x2'&lt;=1 &amp; c'==-1</flow>
    </location>
    <location id="13002" name="loc13002">
      <invariant>x1&gt;=0 &amp; x1&lt;=1 &amp; x2&gt;=2 &amp; x2&lt;=3 &amp; c&gt;=0.1</invariant>
      <flow>x1'&gt;=-1 &amp; x1'&lt;=1 &amp; x2'&gt;=-1 &amp; x2'&lt;=1 &amp; c'==-1</flow>
    </location>
    <location id="19003" name="loc19003">
      <invariant>x1&gt;=0 &amp; x1&lt;=1 &amp; x2&gt;=3 &amp; x2&lt;=4 &amp; c&gt;=0.1</invariant>
      <flow>x1'&gt;=-1 &amp; x1'&lt;=1 &amp; x2'&gt;=-1 &amp; x2'&lt;=1 &amp; c'==-1</flow>
    </location>
    <location id="13004" name="loc13004">
      <invariant>x1&gt;=0 &amp; x1&lt;=1 &amp; x2&gt;=2 &amp; x2&lt;=3 &amp; c&gt;=0.1</invariant>
      <flow>x1'&gt;=-1 &amp; x1'&lt;=1 &amp; x2'&gt;=-1 &amp; x2'&lt;=1 &amp; c'==-1</flow>
    </location>
    <location id="7005" name="loc7005">
      <invariant>x1&gt;=0 &amp; x1&lt;=1 &amp; x2&gt;=1 &amp; x2&lt;=2 &amp; c&gt;=0.1</invariant>
      <flow>x1'&gt;=-1 &amp; x1'&lt;=1 &amp; x2'&gt;=-1 &amp; x2'&lt;=1 &amp; c'==-1</flow>
    </location>
    <location id="8006" name="loc8006">
      <invariant>x1&gt;=1 &amp; x1&lt;=2 &amp; x2&gt;=1 &amp; x2&lt;=2 &amp; c&gt;=0.1</invariant>
      <flow>x1'&gt;=-1 &amp; x1'&lt;=1 &amp; x2'&gt;=-1 &amp; x2'&lt;=1 &amp; c'==-1</flow>
    </location>
    <location id="9007" name="loc9007">
      <invariant>x1&gt;=2 &amp; x1&lt;=3 &amp; x2&gt;=1 &amp; x2&lt;=2 &amp; c&gt;=0.1</invariant>
      <flow>x1'&gt;=-1 &amp; x1'&lt;=1 &amp; x2'&gt;=-1 &amp; x2'&lt;=1 &amp; c'==-1</flow>
    </location>
    <location id="10008" name="loc10008">
      <invariant>x1&gt;=3 &amp; x1&lt;=4 &amp; x2&gt;=1 &amp; x2&lt;=2 &amp; c&gt;=0.1</invariant>
      <flow>x1'&gt;=-1 &amp; x1'&lt;=1 &amp; x2'&gt;=-1 &amp; x2'&lt;=1 &amp; c'==-1</flow>
    </location>
    <location id="11009" name="loc11009">
      <invariant>x1&gt;=4 &amp; x1&lt;=5 &amp; x2&gt;=1 &amp; x2&lt;=2 &amp; c&gt;=0.1</invariant>
      <flow>x1'&gt;=-1 &amp; x1'&lt;=1 &amp; x2'&gt;=-1 &amp; x2'&lt;=1 &amp; c'==-1</flow>
    </location>
    <location id="170010" name="loc170010">
      <invariant>x1&gt;=4 &amp; x1&lt;=5 &amp; x2&gt;=2 &amp; x2&lt;=3 &amp; c&gt;=0.1</invariant>
      <flow>x1'&gt;=-1 &amp; x1'&lt;=1 &amp; x2'&gt;=-1 &amp; x2'&lt;=1 &amp; c'==-1</flow>
    </location>
    <transition source="19001" target="13002">
      <label>e42001</label>
      <guard>x1&gt;=0 &amp; x1&lt;=1 &amp; x2==3</guard>

    </transition>
    <transition source="13002" target="19003">
      <label>e34002</label>
      <guard>x1&gt;=0 &amp; x1&lt;=1 &amp; x2==3</guard>

    </transition>
    <transition source="19003" target="13004">
      <label>e42003</label>
      <guard>x1&gt;=0 &amp; x1&lt;=1 &amp; x2==3</guard>

    </transition>
    <transition source="13004" target="7005">
      <label>e32004</label>
      <guard>x1&gt;=0 &amp; x1&lt;=1 &amp; x2==2</guard>

    </transition>
    <transition source="7005" target="8006">
      <label>e13005</label>
      <guard>x1==1 &amp; x2&gt;=1 &amp; x2&lt;=2</guard>

    </transition>
    <transition source="8006" target="9007">
      <label>e17006</label>
      <guard>x1==2 &amp; x2&gt;=1 &amp; x2&lt;=2</guard>

    </transition>
    <transition source="9007" target="10008">
      <label>e20007</label>
      <guard>x1==3 &amp; x2&gt;=1 &amp; x2&lt;=2</guard>

    </transition>
    <transition source="10008" target="11009">
      <label>e23008</label>
      <guard>x1==4 &amp; x2&gt;=1 &amp; x2&lt;=2</guard>

    </transition>
    <transition source="11009" target="170010">
      <label>e28009</label>
      <guard>x1&gt;=4 &amp; x1&lt;=5 &amp; x2==2</guard>

    </transition>
  </component>
</sspaceex>
