<?xml version="1.0" encoding="iso-8859-1"?>
<sspaceex xmlns="http://www-verimag.imag.fr/xml-namespaces/sspaceex" version="0.2" math="SpaceEx">
  <component id="warehouse_automation_human">
    <param name="x1" type="real" local="false" d1="1" d2="1" dynamics="any" />
    <param name="x2" type="real" local="false" d1="1" d2="1" dynamics="any" />
    <param name="c" type="real" local="false" d1="1" d2="1" dynamics="any" />
    <param name="e42001" type="label" local="false" />
    <param name="e32002" type="label" local="false" />
    <param name="e13003" type="label" local="false" />
    <param name="e17004" type="label" local="false" />
    <param name="e20005" type="label" local="false" />
    <param name="e24006" type="label" local="false" />
    <param name="e39007" type="label" local="false" />
    <param name="e44008" type="label" local="false" />
    <param name="e38009" type="label" local="false" />
    <location id="19001" name="loc19001">
      <invariant>x1&gt;=0 &amp; x1&lt;=1 &amp; x2&gt;=3 &amp; x2&lt;=4 &amp; c&gt;=0.1</invariant>
      <flow>x1'&gt;=-1 &amp; x1'&lt;=1 &amp; x2'&gt;=-1 &amp; x2'&lt;=1 &amp; c'==-1</flow>
    </location>
    <location id="13002" name="loc13002">
      <invariant>x1&gt;=0 &amp; x1&lt;=1 &amp; x2&gt;=2 &amp; x2&lt;=3 &amp; c&gt;=0.1</invariant>
      <flow>x1'&gt;=-1 &amp; x1'&lt;=1 &amp; x2'&gt;=-1 &amp; x2'&lt;=1 &amp; c'==-1</flow>
    </location>
    <location id="7003" name="loc7003">
      <invariant>x1&gt;=0 &amp; x1&lt;=1 &amp; x2&gt;=1 &amp; x2&lt;=2 &amp; c&gt;=0.1</invariant>
      <flow>x1'&gt;=-1 &amp; x1'&lt;=1 &amp; x2'&gt;=-1 &amp; x2'&lt;=1 &amp; c'==-1</flow>
    </location>
    <location id="8004" name="loc8004">
      <invariant>x1&gt;=1 &amp; x1&lt;=2 &amp; x2&gt;=1 &amp; x2&lt;=2 &amp; c&gt;=0.1</invariant>
      <flow>x1'&gt;=-1 &amp; x1'&lt;=1 &amp; x2'&gt;=-1 &amp; x2'&lt;=1 &amp; c'==-1</flow>
    </location>
    <location id="9005" name="loc9005">
      <invariant>x1&gt;=2 &amp; x1&lt;=3 &amp; x2&gt;=1 &amp; x2&lt;=2 &amp; c&gt;=0.1</invariant>
      <flow>x1'&gt;=-1 &amp; x1'&lt;=1 &amp; x2'&gt;=-1 &amp; x2'&lt;=1 &amp; c'==-1</flow>
    </location>
    <location id="10006" name="loc10006">
      <invariant>x1&gt;=3 &amp; x1&lt;=4 &amp; x2&gt;=1 &amp; x2&lt;=2 &amp; c&gt;=0.1</invariant>
      <flow>x1'&gt;=-1 &amp; x1'&lt;=1 &amp; x2'&gt;=-1 &amp; x2'&lt;=1 &amp; c'==-1</flow>
    </location>
    <location id="16007" name="loc16007">
      <invariant>x1&gt;=3 &amp; x1&lt;=4 &amp; x2&gt;=2 &amp; x2&lt;=3 &amp; c&gt;=0.1</invariant>
      <flow>x1'&gt;=-1 &amp; x1'&lt;=1 &amp; x2'&gt;=-1 &amp; x2'&lt;=1 &amp; c'==-1</flow>
    </location>
    <location id="22008" name="loc22008">
      <invariant>x1&gt;=3 &amp; x1&lt;=4 &amp; x2&gt;=3 &amp; x2&lt;=4 &amp; c&gt;=0.1</invariant>
      <flow>x1'&gt;=-1 &amp; x1'&lt;=1 &amp; x2'&gt;=-1 &amp; x2'&lt;=1 &amp; c'==0</flow>
    </location>
    <location id="16009" name="loc16009">
      <invariant>x1&gt;=3 &amp; x1&lt;=4 &amp; x2&gt;=2 &amp; x2&lt;=3 &amp; c&gt;=0.1</invariant>
      <flow>x1'&gt;=-1 &amp; x1'&lt;=1 &amp; x2'&gt;=-1 &amp; x2'&lt;=1 &amp; c'==-1</flow>
    </location>
    <location id="170010" name="loc170010">
      <invariant>x1&gt;=4 &amp; x1&lt;=5 &amp; x2&gt;=2 &amp; x2&lt;=3 &amp; c&gt;=0.1</invariant>
      <flow>x1'&gt;=-1 &amp; x1'&lt;=1 &amp; x2'&gt;=-1 &amp; x2'&lt;=1 &amp; c'==-1</flow>
    </location>
    <transition source="19001" target="13002">
      <label>e42001</label>
      <guard>x1&gt;=0 &amp; x1&lt;=1 &amp; x2==3</guard>

    </transition>
    <transition source="13002" target="7003">
      <label>e32002</label>
      <guard>x1&gt;=0 &amp; x1&lt;=1 &amp; x2==2</guard>

    </transition>
    <transition source="7003" target="8004">
      <label>e13003</label>
      <guard>x1==1 &amp; x2&gt;=1 &amp; x2&lt;=2</guard>

    </transition>
    <transition source="8004" target="9005">
      <label>e17004</label>
      <guard>x1==2 &amp; x2&gt;=1 &amp; x2&lt;=2</guard>

    </transition>
    <transition source="9005" target="10006">
      <label>e20005</label>
      <guard>x1==3 &amp; x2&gt;=1 &amp; x2&lt;=2</guard>

    </transition>
    <transition source="10006" target="16007">
      <label>e24006</label>
      <guard>x1&gt;=3 &amp; x1&lt;=4 &amp; x2==2</guard>

    </transition>
    <transition source="16007" target="22008">
      <label>e39007</label>
      <guard>x1&gt;=3 &amp; x1&lt;=4 &amp; x2==3</guard>

    </transition>
    <transition source="22008" target="16009">
      <label>e44008</label>
      <guard>x1&gt;=3 &amp; x1&lt;=4 &amp; x2==3</guard>
      <assignment>c:=10</assignment>
    </transition>
    <transition source="16009" target="170010">
      <label>e38009</label>
      <guard>x1==4 &amp; x2&gt;=2 &amp; x2&lt;=3</guard>

    </transition>
  </component>
</sspaceex>
